// Jest Snapshot v1, https://goo.gl/fbAQLP

exports[`Displays phone detail 1`] = `
<article
  className="detail"
>
  <h2
    className="detail__title"
  >
    Details for 
    iPhone 7
  </h2>
  <div
    className="media-object"
  >
    <img
      className="detail__image"
      src="https://raw.githubusercontent.com/guidesmiths/interview-code-challenges/master/react/phone-catalogue/images/IPhone_7.png"
    />
    <dl
      className="detail__specs"
    >
      <dt>
        Brand
      </dt>
      <dd>
        Apple
      </dd>
      <dt>
        Color
      </dt>
      <dd>
        black
      </dd>
      <dt>
        Screen
      </dt>
      <dd>
        4,7 inch IPS
      </dd>
      <dt>
        Processor
      </dt>
      <dd>
        A10 Fusion
      </dd>
      <dt>
        RAM
      </dt>
      <dd>
        2
      </dd>
    </dl>
  </div>
  <p
    className="detail__description"
  >
    iPhone 7 dramatically improves the most important aspects of the iPhone experience. It introduces advanced new camera systems. The best performance and battery life ever in an iPhone. Immersive stereo speakers. The brightest, most colorful iPhone display. Splash and water resistance*. And it looks every bit as powerful as it is. This is iPhone 7.
  </p>
  <p
    className="detail__price"
  >
    769
     €
  </p>
</article>
`;
